First Name,Last Name,Mailing Address,Mailing City,Mailing State,Mailing Zip,Property Address,Property City,Property State,Property Zip
Veronica,Ward,2061 Patriot Ridge Rd,Jacksonville,FL,32221,375 W 62nd St,Jacksonville,FL,32208
Ben,Turner,12433 Cadley Cir,Jacksonville,FL,32219,3135 Soutel Dr,Jacksonville,FL,32208
Michael,Baker,4835 Beverly Cir,Jacksonville,FL,32210,3442 Ribault Scenic Dr,Jacksonville,FL,32208
Curtis,Bailey,5610 Long St,Jacksonville,FL,32208,1024 Ardoon St,Jacksonville,FL,32208
Arnold,Durham,11048 N Campus Blvd,Jacksonville,FL,32218,2120 Holcroft Dr,Jacksonville,FL,32208
Robert,Hays,15751 Shellcracker Rd,Jacksonville,FL,32226,611 E 58th St,Jacksonville,FL,32208
Daniel,Anderson,Po Box 12526,Jacksonville,FL,32209,8505 Howell Dr,Jacksonville,FL,32208
Shirley,Mcallister,117 Bernard Rd,Jacksonville,FL,32218,5518 Alta St,Jacksonville,FL,32208
Warren,Wilson,3242 Rhone Dr,Jacksonville,FL,32208,7605 Vashti Rd,Jacksonville,FL,32208
Darion,Green,6440 Hyde Grove Ave,Jacksonville,FL,32210,3075 Soutel Dr,Jacksonville,FL,32208
Aurelius,Stafford,8607 2nd Ave,Jacksonville,FL,32208,745 Calvert St,Jacksonville,FL,32208
Kenneth,Rodgers,7675 Calvin St,Jacksonville,FL,32208,9074 Polk Ave,Jacksonville,FL,32208
Kenneth,Corbett,3688 Timucua Trl,Jacksonville,FL,32277,1825 Palmdale St,Jacksonville,FL,32208
Edward,Standley,5104 Twin Lakes Dr,Lithonia,GA,30038,4459 Kenndle Cir,Jacksonville,FL,32208